…
file_df_clean <-
  file_df_raw %>% 
  janitor::clean_names() %>%
  select(-file_path) %>% 
  mutate(files = sub(".csv", "", files)) %>%
  pivot_longer(
    week_1:week_8,
    names_to = "week_id", 
    values_to = "data", 
    names_prefix = "week_") %>% 
  rename(obs_id = files)
file_df_clean
```

    ## # A tibble: 160 × 3
    ##    obs_id week_id  data
    ##    <chr>  <chr>   <dbl>
    ##  1 con_01 1        0.2 
    ##  2 con_01 2       -1.31
    ##  3 con_01 3        0.66
    ##  4 con_01 4        1.96
    ##  5 con_01 5        0.23
    ##  6 con_01 6        1.09
    ##  7 con_01 7        0.05
    ##  8 con_01 8        1.94
    ##  9 con_02 1        1.13
    ## 10 con_02 2       -0.88
    ## # … with 150 more rows
…
  if (is.numeric(vector)) {
    vector = ifelse(is.na(vector), mean(vector, na.rm = TRUE), vector)
  }
  if (is.character(vector)) {
    vector = ifelse(is.na(vector), "virginica", vector)
  }
  else {
    vector = ifelse(is.na(vector), "ERROR", vector)
  }
}
iris_no_missing <- map_dfr(iris_with_missing, fill_in_missing)
iris_no_missing
```

    ## # A tibble: 150 × 5
    ##    Sepal.Length Sepal.Width Petal.Length Petal.Width Species
    ##           <dbl>       <dbl>        <dbl>       <dbl> <chr>  
    ##  1         5.1          3.5         1.4         0.2  setosa 
    ##  2         4.9          3           1.4         0.2  setosa 
    ##  3         4.7          3.2         1.3         0.2  setosa 
    ##  4         4.6          3.1         1.5         1.19 setosa 
    ##  5         5            3.6         1.4         0.2  setosa 
    ##  6         5.4          3.9         1.7         0.4  setosa 
    ##  7         5.82         3.4         1.4         0.3  setosa 
    ##  8         5            3.4         1.5         0.2  setosa 
    ##  9         4.4          2.9         1.4         0.2  setosa 
    ## 10         4.9          3.1         3.77        0.1  setosa 
    ## # … with 140 more rows
